\beamer@endinputifotherversion {3.10pt}
\beamer@sectionintoc {1}{Some Jargon}{3}{0}{1}
\beamer@sectionintoc {2}{Function Minimization}{4}{0}{2}
\beamer@sectionintoc {3}{Systematic Algebraic Reduction (SAR)}{5}{0}{3}
\beamer@sectionintoc {4}{Using K-Maps}{13}{0}{4}
