\BOOKMARK [2][]{Outline0.1}{Some Jargon}{}
\BOOKMARK [2][]{Outline0.2}{Function Minimization}{}
\BOOKMARK [2][]{Outline0.3}{Systematic Algebraic Reduction \(SAR\)}{}
\BOOKMARK [2][]{Outline0.4}{Using K-Maps}{}
