\beamer@endinputifotherversion {3.33pt}
\beamer@sectionintoc {1}{Method of analysising sync cirucits}{3}{0}{1}
\beamer@sectionintoc {2}{Applying the five step analysis technique}{12}{0}{2}
\beamer@sectionintoc {3}{A useful book}{23}{0}{3}
