\relax 
\providecommand\hyper@newdestlabel[2]{}
\providecommand\HyperFirstAtBeginDocument{\AtBeginDocument}
\HyperFirstAtBeginDocument{\ifx\hyper@anchor\@undefined
\global\let\oldcontentsline\contentsline
\gdef\contentsline#1#2#3#4{\oldcontentsline{#1}{#2}{#3}}
\global\let\oldnewlabel\newlabel
\gdef\newlabel#1#2{\newlabelxx{#1}#2}
\gdef\newlabelxx#1#2#3#4#5#6{\oldnewlabel{#1}{{#2}{#3}}}
\AtEndDocument{\ifx\hyper@anchor\@undefined
\let\contentsline\oldcontentsline
\let\newlabel\oldnewlabel
\fi}
\fi}
\global\let\hyper@last\relax 
\gdef\HyperFirstAtBeginDocument#1{#1}
\providecommand\HyField@AuxAddToFields[1]{}
\providecommand\HyField@AuxAddToCoFields[2]{}
\@writefile{toc}{\beamer@endinputifotherversion {3.33pt}}
\@writefile{nav}{\beamer@endinputifotherversion {3.33pt}}
\@writefile{nav}{\headcommand {\slideentry {0}{0}{1}{1/1}{}{0}}}
\@writefile{nav}{\headcommand {\beamer@framepages {1}{1}}}
\@writefile{nav}{\headcommand {\slideentry {0}{0}{2}{2/2}{}{0}}}
\@writefile{nav}{\headcommand {\beamer@framepages {2}{2}}}
\@writefile{toc}{\beamer@sectionintoc {1}{Introduction}{3}{0}{1}}
\@writefile{nav}{\headcommand {\sectionentry {1}{Introduction}{3}{Introduction}{0}}}
\@writefile{nav}{\headcommand {\beamer@sectionpages {1}{2}}}
\@writefile{nav}{\headcommand {\beamer@subsectionpages {1}{2}}}
\@writefile{nav}{\headcommand {\slideentry {1}{0}{3}{3/3}{}{0}}}
\@writefile{nav}{\headcommand {\beamer@framepages {3}{3}}}
\@writefile{nav}{\headcommand {\slideentry {1}{0}{3}{3/4}{}{0}}}
\@writefile{nav}{\headcommand {\beamer@framepages {3}{4}}}
\@writefile{nav}{\headcommand {\slideentry {1}{0}{3}{3/5}{}{0}}}
\@writefile{nav}{\headcommand {\beamer@framepages {3}{5}}}
\@writefile{toc}{\beamer@sectionintoc {2}{Flip-flops vs Latches}{6}{0}{2}}
\@writefile{nav}{\headcommand {\sectionentry {2}{Flip-flops vs Latches}{6}{Flip-flops vs Latches}{0}}}
\@writefile{nav}{\headcommand {\beamer@sectionpages {3}{5}}}
\@writefile{nav}{\headcommand {\beamer@subsectionpages {3}{5}}}
\@writefile{nav}{\headcommand {\slideentry {2}{0}{4}{6/6}{}{0}}}
\@writefile{nav}{\headcommand {\beamer@framepages {6}{6}}}
\@writefile{nav}{\headcommand {\slideentry {2}{0}{4}{6/7}{}{0}}}
\@writefile{nav}{\headcommand {\beamer@framepages {6}{7}}}
\@writefile{nav}{\headcommand {\slideentry {2}{0}{4}{6/8}{}{0}}}
\@writefile{nav}{\headcommand {\beamer@framepages {6}{8}}}
\@writefile{toc}{\beamer@sectionintoc {3}{Flip-flop/Latch Taxonomy}{9}{0}{3}}
\@writefile{nav}{\headcommand {\sectionentry {3}{Flip-flop/Latch Taxonomy}{9}{Flip-flop/Latch Taxonomy}{0}}}
\@writefile{nav}{\headcommand {\beamer@sectionpages {6}{8}}}
\@writefile{nav}{\headcommand {\beamer@subsectionpages {6}{8}}}
\@writefile{nav}{\headcommand {\slideentry {3}{0}{5}{9/9}{}{0}}}
\@writefile{nav}{\headcommand {\beamer@framepages {9}{9}}}
\@writefile{nav}{\headcommand {\slideentry {3}{0}{5}{9/10}{}{0}}}
\@writefile{nav}{\headcommand {\beamer@framepages {9}{10}}}
\citation{kojima2013sr}
\@writefile{toc}{\beamer@sectionintoc {4}{A Simple Set-Reset Latch}{11}{0}{4}}
\@writefile{nav}{\headcommand {\sectionentry {4}{A Simple Set-Reset Latch}{11}{A Simple Set-Reset Latch}{0}}}
\@writefile{nav}{\headcommand {\beamer@sectionpages {9}{10}}}
\@writefile{nav}{\headcommand {\beamer@subsectionpages {9}{10}}}
\@writefile{nav}{\headcommand {\slideentry {4}{0}{6}{11/11}{}{0}}}
\@writefile{nav}{\headcommand {\beamer@framepages {11}{11}}}
\citation{kojima2013sr}
\@writefile{nav}{\headcommand {\slideentry {4}{0}{6}{11/12}{}{0}}}
\@writefile{nav}{\headcommand {\beamer@framepages {11}{12}}}
\citation{kojima2013sr}
\@writefile{nav}{\headcommand {\slideentry {4}{0}{6}{11/13}{}{0}}}
\@writefile{nav}{\headcommand {\beamer@framepages {11}{13}}}
\citation{kojima2013sr}
\newlabel{my-label}{{1}{14}{A Simple Set-Reset Latch}{Doc-Start}{}}
\@writefile{snm}{\beamer@slide {my-label}{11}}
\@writefile{nav}{\headcommand {\slideentry {4}{0}{6}{11/14}{}{0}}}
\@writefile{nav}{\headcommand {\beamer@framepages {11}{14}}}
\citation{kojima2013sr}
\@writefile{nav}{\headcommand {\slideentry {4}{0}{6}{11/15}{}{0}}}
\@writefile{nav}{\headcommand {\beamer@framepages {11}{15}}}
\citation{kojima2013sr}
\@writefile{nav}{\headcommand {\slideentry {4}{0}{6}{11/16}{}{0}}}
\@writefile{nav}{\headcommand {\beamer@framepages {11}{16}}}
\@writefile{nav}{\headcommand {\slideentry {4}{0}{7}{17/17}{}{0}}}
\@writefile{nav}{\headcommand {\beamer@framepages {17}{17}}}
\bibstyle{apalike}
\bibdata{ref}
\bibcite{kojima2013sr}{\hyperlink {beamerbibkojima2013sr}{Kojima, 2013}}
\@writefile{nav}{\headcommand {\slideentry {4}{0}{8}{18/18}{}{0}}}
\@writefile{nav}{\headcommand {\beamer@framepages {18}{18}}}
\@writefile{nav}{\headcommand {\beamer@partpages {1}{18}}}
\@writefile{nav}{\headcommand {\beamer@subsectionpages {11}{18}}}
\@writefile{nav}{\headcommand {\beamer@sectionpages {11}{18}}}
\@writefile{nav}{\headcommand {\beamer@documentpages {18}}}
\@writefile{nav}{\headcommand {\def \inserttotalframenumber {18}}}
