\beamer@endinputifotherversion {3.33pt}
\beamer@sectionintoc {1}{Async Circuit Design}{3}{0}{1}
\beamer@sectionintoc {2}{Sync Circuit Design}{7}{0}{2}
\beamer@sectionintoc {3}{Additional Flip Flops}{12}{0}{3}
\beamer@sectionintoc {4}{Sequential Circuit Analysis}{17}{0}{4}
