\relax 
\providecommand\hyper@newdestlabel[2]{}
\providecommand\HyperFirstAtBeginDocument{\AtBeginDocument}
\HyperFirstAtBeginDocument{\ifx\hyper@anchor\@undefined
\global\let\oldcontentsline\contentsline
\gdef\contentsline#1#2#3#4{\oldcontentsline{#1}{#2}{#3}}
\global\let\oldnewlabel\newlabel
\gdef\newlabel#1#2{\newlabelxx{#1}#2}
\gdef\newlabelxx#1#2#3#4#5#6{\oldnewlabel{#1}{{#2}{#3}}}
\AtEndDocument{\ifx\hyper@anchor\@undefined
\let\contentsline\oldcontentsline
\let\newlabel\oldnewlabel
\fi}
\fi}
\global\let\hyper@last\relax 
\gdef\HyperFirstAtBeginDocument#1{#1}
\providecommand\HyField@AuxAddToFields[1]{}
\providecommand\HyField@AuxAddToCoFields[2]{}
\@writefile{toc}{\beamer@endinputifotherversion {3.33pt}}
\@writefile{nav}{\beamer@endinputifotherversion {3.33pt}}
\@writefile{nav}{\headcommand {\slideentry {0}{0}{1}{1/1}{}{0}}}
\@writefile{nav}{\headcommand {\beamer@framepages {1}{1}}}
\@writefile{nav}{\headcommand {\slideentry {0}{0}{2}{2/2}{}{0}}}
\@writefile{nav}{\headcommand {\beamer@framepages {2}{2}}}
\citation{majumder2015investigation}
\@writefile{toc}{\beamer@sectionintoc {1}{Introduction}{3}{0}{1}}
\@writefile{nav}{\headcommand {\sectionentry {1}{Introduction}{3}{Introduction}{0}}}
\@writefile{nav}{\headcommand {\beamer@sectionpages {1}{2}}}
\@writefile{nav}{\headcommand {\beamer@subsectionpages {1}{2}}}
\@writefile{nav}{\headcommand {\slideentry {1}{0}{3}{3/3}{}{0}}}
\@writefile{nav}{\headcommand {\beamer@framepages {3}{3}}}
\@writefile{nav}{\headcommand {\slideentry {1}{0}{3}{3/4}{}{0}}}
\@writefile{nav}{\headcommand {\beamer@framepages {3}{4}}}
\@writefile{nav}{\headcommand {\slideentry {1}{0}{3}{3/5}{}{0}}}
\@writefile{nav}{\headcommand {\beamer@framepages {3}{5}}}
\@writefile{nav}{\headcommand {\slideentry {1}{0}{3}{3/6}{}{0}}}
\@writefile{nav}{\headcommand {\beamer@framepages {3}{6}}}
\@writefile{nav}{\headcommand {\slideentry {1}{0}{3}{3/7}{}{0}}}
\@writefile{nav}{\headcommand {\beamer@framepages {3}{7}}}
\@writefile{nav}{\headcommand {\slideentry {1}{0}{3}{3/8}{}{0}}}
\@writefile{nav}{\headcommand {\beamer@framepages {3}{8}}}
\@writefile{nav}{\headcommand {\slideentry {1}{0}{3}{3/9}{}{0}}}
\@writefile{nav}{\headcommand {\beamer@framepages {3}{9}}}
\@writefile{toc}{\beamer@sectionintoc {2}{Example}{10}{0}{2}}
\@writefile{nav}{\headcommand {\sectionentry {2}{Example}{10}{Example}{0}}}
\@writefile{nav}{\headcommand {\beamer@sectionpages {3}{9}}}
\@writefile{nav}{\headcommand {\beamer@subsectionpages {3}{9}}}
\@writefile{nav}{\headcommand {\slideentry {2}{0}{4}{10/10}{}{0}}}
\@writefile{nav}{\headcommand {\beamer@framepages {10}{10}}}
\@writefile{nav}{\headcommand {\slideentry {2}{0}{4}{10/11}{}{0}}}
\@writefile{nav}{\headcommand {\beamer@framepages {10}{11}}}
\@writefile{nav}{\headcommand {\slideentry {2}{0}{4}{10/12}{}{0}}}
\@writefile{nav}{\headcommand {\beamer@framepages {10}{12}}}
\@writefile{nav}{\headcommand {\slideentry {2}{0}{4}{10/13}{}{0}}}
\@writefile{nav}{\headcommand {\beamer@framepages {10}{13}}}
\@writefile{nav}{\headcommand {\slideentry {2}{0}{4}{10/14}{}{0}}}
\@writefile{nav}{\headcommand {\beamer@framepages {10}{14}}}
\@writefile{nav}{\headcommand {\slideentry {2}{0}{4}{10/15}{}{0}}}
\@writefile{nav}{\headcommand {\beamer@framepages {10}{15}}}
\@writefile{nav}{\headcommand {\slideentry {2}{0}{4}{10/16}{}{0}}}
\@writefile{nav}{\headcommand {\beamer@framepages {10}{16}}}
\@writefile{toc}{\beamer@sectionintoc {3}{Problems?}{17}{0}{3}}
\@writefile{nav}{\headcommand {\sectionentry {3}{Problems?}{17}{Problems?}{0}}}
\@writefile{nav}{\headcommand {\beamer@sectionpages {10}{16}}}
\@writefile{nav}{\headcommand {\beamer@subsectionpages {10}{16}}}
\@writefile{nav}{\headcommand {\slideentry {3}{0}{5}{17/17}{}{0}}}
\@writefile{nav}{\headcommand {\beamer@framepages {17}{17}}}
\bibstyle{apalike}
\bibdata{ref}
\bibcite{majumder2015investigation}{\hyperlink {beamerbibmajumder2015investigation}{Majumder et\nobreakspace  {}al., 2015}}
\@writefile{nav}{\headcommand {\slideentry {3}{0}{6}{18/18}{}{0}}}
\@writefile{nav}{\headcommand {\beamer@framepages {18}{18}}}
\@writefile{nav}{\headcommand {\beamer@partpages {1}{18}}}
\@writefile{nav}{\headcommand {\beamer@subsectionpages {17}{18}}}
\@writefile{nav}{\headcommand {\beamer@sectionpages {17}{18}}}
\@writefile{nav}{\headcommand {\beamer@documentpages {18}}}
\@writefile{nav}{\headcommand {\def \inserttotalframenumber {18}}}
