\relax 
\ifx\hyper@anchor\@undefined
\global \let \oldcontentsline\contentsline
\gdef \contentsline#1#2#3#4{\oldcontentsline{#1}{#2}{#3}}
\global \let \oldnewlabel\newlabel
\gdef \newlabel#1#2{\newlabelxx{#1}#2}
\gdef \newlabelxx#1#2#3#4#5#6{\oldnewlabel{#1}{{#2}{#3}}}
\AtEndDocument{\let \contentsline\oldcontentsline
\let \newlabel\oldnewlabel}
\else
\global \let \hyper@last\relax 
\fi

\@writefile{toc}{\beamer@endinputifotherversion {3.10pt}}
\@writefile{nav}{\beamer@endinputifotherversion {3.10pt}}
\@writefile{nav}{\headcommand {\slideentry {0}{0}{1}{1/1}{}{0}}}
\@writefile{nav}{\headcommand {\beamer@framepages {1}{1}}}
\@writefile{nav}{\headcommand {\slideentry {0}{0}{2}{2/2}{}{0}}}
\@writefile{nav}{\headcommand {\beamer@framepages {2}{2}}}
\citation{brown2012boolean}
\@writefile{toc}{\beamer@sectionintoc {1}{The Lab next week}{3}{0}{1}}
\@writefile{nav}{\headcommand {\sectionentry {1}{The Lab next week}{3}{The Lab next week}{0}}}
\@writefile{nav}{\headcommand {\beamer@sectionpages {1}{2}}}
\@writefile{nav}{\headcommand {\beamer@subsectionpages {1}{2}}}
\@writefile{nav}{\headcommand {\slideentry {1}{0}{3}{3/3}{}{0}}}
\@writefile{nav}{\headcommand {\beamer@framepages {3}{3}}}
\@writefile{toc}{\beamer@sectionintoc {2}{More minimisation..}{4}{0}{2}}
\@writefile{nav}{\headcommand {\sectionentry {2}{More minimisation..}{4}{More minimisation..}{0}}}
\@writefile{nav}{\headcommand {\beamer@sectionpages {3}{3}}}
\@writefile{nav}{\headcommand {\beamer@subsectionpages {3}{3}}}
\@writefile{nav}{\headcommand {\slideentry {2}{0}{4}{4/4}{}{0}}}
\@writefile{nav}{\headcommand {\beamer@framepages {4}{4}}}
\citation{ciletti2003advanced}
\@writefile{toc}{\beamer@sectionintoc {3}{Sum of Products (SOP) Example}{5}{0}{3}}
\@writefile{nav}{\headcommand {\sectionentry {3}{Sum of Products (SOP) Example}{5}{Sum of Products (SOP) Example}{0}}}
\@writefile{nav}{\headcommand {\beamer@sectionpages {4}{4}}}
\@writefile{nav}{\headcommand {\beamer@subsectionpages {4}{4}}}
\@writefile{nav}{\headcommand {\slideentry {3}{0}{5}{5/5}{}{0}}}
\@writefile{nav}{\headcommand {\beamer@framepages {5}{5}}}
\citation{ciletti2003advanced}
\newlabel{my-label}{{5}{6}{Sum of Products (SOP) Example\relax }{}{}}
\@writefile{snm}{\beamer@slide {my-label}{5}}
\@writefile{nav}{\headcommand {\slideentry {3}{0}{5}{5/6}{}{0}}}
\@writefile{nav}{\headcommand {\beamer@framepages {5}{6}}}
\citation{ciletti2003advanced}
\@writefile{nav}{\headcommand {\slideentry {3}{0}{5}{5/7}{}{0}}}
\@writefile{nav}{\headcommand {\beamer@framepages {5}{7}}}
\citation{ciletti2003advanced}
\@writefile{nav}{\headcommand {\slideentry {3}{0}{5}{5/8}{}{0}}}
\@writefile{nav}{\headcommand {\beamer@framepages {5}{8}}}
\@writefile{nav}{\headcommand {\slideentry {3}{0}{6}{9/9}{}{0}}}
\@writefile{nav}{\headcommand {\beamer@framepages {9}{9}}}
\newlabel{my-label}{{6}{10}{Sum of Products (SOP) Example\relax }{}{}}
\@writefile{snm}{\beamer@slide {my-label}{9}}
\@writefile{nav}{\headcommand {\slideentry {3}{0}{6}{9/10}{}{0}}}
\@writefile{nav}{\headcommand {\beamer@framepages {9}{10}}}
\@writefile{nav}{\headcommand {\slideentry {3}{0}{6}{9/11}{}{0}}}
\@writefile{nav}{\headcommand {\beamer@framepages {9}{11}}}
\@writefile{nav}{\headcommand {\slideentry {3}{0}{6}{9/12}{}{0}}}
\@writefile{nav}{\headcommand {\beamer@framepages {9}{12}}}
\@writefile{nav}{\headcommand {\slideentry {3}{0}{6}{9/13}{}{0}}}
\@writefile{nav}{\headcommand {\beamer@framepages {9}{13}}}
\@writefile{toc}{\beamer@sectionintoc {4}{But what about POS?}{14}{0}{4}}
\@writefile{nav}{\headcommand {\sectionentry {4}{But what about POS?}{14}{But what about POS?}{0}}}
\@writefile{nav}{\headcommand {\beamer@sectionpages {5}{13}}}
\@writefile{nav}{\headcommand {\beamer@subsectionpages {5}{13}}}
\@writefile{nav}{\headcommand {\slideentry {4}{0}{7}{14/14}{}{0}}}
\@writefile{nav}{\headcommand {\beamer@framepages {14}{14}}}
\@writefile{nav}{\headcommand {\slideentry {4}{0}{7}{14/15}{}{0}}}
\@writefile{nav}{\headcommand {\beamer@framepages {14}{15}}}
\@writefile{nav}{\headcommand {\slideentry {4}{0}{7}{14/16}{}{0}}}
\@writefile{nav}{\headcommand {\beamer@framepages {14}{16}}}
\@writefile{nav}{\headcommand {\sectionentry {5}{References}{17}{References}{0}}}
\@writefile{nav}{\headcommand {\beamer@sectionpages {14}{16}}}
\@writefile{nav}{\headcommand {\beamer@subsectionpages {14}{16}}}
\@writefile{nav}{\headcommand {\slideentry {5}{0}{8}{17/17}{}{0}}}
\@writefile{nav}{\headcommand {\beamer@framepages {17}{17}}}
\bibstyle{apalike}
\bibdata{ref}
\bibcite{brown2012boolean}{\hyperlink {beamerbibbrown2012boolean}{Brown, 2012}}
\bibcite{ciletti2003advanced}{\hyperlink {beamerbibciletti2003advanced}{Ciletti, 2003}}
\@writefile{nav}{\headcommand {\slideentry {5}{0}{9}{18/18}{}{0}}}
\@writefile{nav}{\headcommand {\beamer@framepages {18}{18}}}
\@writefile{nav}{\headcommand {\beamer@partpages {1}{18}}}
\@writefile{nav}{\headcommand {\beamer@subsectionpages {17}{18}}}
\@writefile{nav}{\headcommand {\beamer@sectionpages {17}{18}}}
\@writefile{nav}{\headcommand {\beamer@documentpages {18}}}
\@writefile{nav}{\headcommand {\def \inserttotalframenumber {18}}}
