\beamer@endinputifotherversion {3.10pt}
\beamer@sectionintoc {1}{The Lab next week}{3}{0}{1}
\beamer@sectionintoc {2}{More minimisation..}{4}{0}{2}
\beamer@sectionintoc {3}{Sum of Products (SOP) Example}{5}{0}{3}
\beamer@sectionintoc {4}{But what about POS?}{14}{0}{4}
