\beamer@endinputifotherversion {3.33pt}
\beamer@sectionintoc {1}{Introduction}{3}{0}{1}
\beamer@sectionintoc {2}{SR Flip FLops}{4}{0}{2}
\beamer@sectionintoc {3}{Async Issues}{10}{0}{3}
\beamer@sectionintoc {4}{Circuit Analysis}{15}{0}{4}
