\beamer@endinputifotherversion {3.33pt}
\beamer@sectionintoc {1}{What to do?}{3}{0}{1}
\beamer@sectionintoc {2}{What not do?}{5}{0}{2}
\beamer@sectionintoc {3}{The exam structure}{7}{0}{3}
\beamer@sectionintoc {4}{People to ask}{9}{0}{4}
