\relax 
\providecommand\hyper@newdestlabel[2]{}
\providecommand\HyperFirstAtBeginDocument{\AtBeginDocument}
\HyperFirstAtBeginDocument{\ifx\hyper@anchor\@undefined
\global\let\oldcontentsline\contentsline
\gdef\contentsline#1#2#3#4{\oldcontentsline{#1}{#2}{#3}}
\global\let\oldnewlabel\newlabel
\gdef\newlabel#1#2{\newlabelxx{#1}#2}
\gdef\newlabelxx#1#2#3#4#5#6{\oldnewlabel{#1}{{#2}{#3}}}
\AtEndDocument{\ifx\hyper@anchor\@undefined
\let\contentsline\oldcontentsline
\let\newlabel\oldnewlabel
\fi}
\fi}
\global\let\hyper@last\relax 
\gdef\HyperFirstAtBeginDocument#1{#1}
\providecommand\HyField@AuxAddToFields[1]{}
\providecommand\HyField@AuxAddToCoFields[2]{}
\@writefile{toc}{\beamer@endinputifotherversion {3.33pt}}
\@writefile{nav}{\beamer@endinputifotherversion {3.33pt}}
\@writefile{nav}{\headcommand {\slideentry {0}{0}{1}{1/1}{}{0}}}
\@writefile{nav}{\headcommand {\beamer@framepages {1}{1}}}
\@writefile{nav}{\headcommand {\slideentry {0}{0}{2}{2/2}{}{0}}}
\@writefile{nav}{\headcommand {\beamer@framepages {2}{2}}}
\@writefile{toc}{\beamer@sectionintoc {1}{What to do?}{3}{0}{1}}
\@writefile{nav}{\headcommand {\sectionentry {1}{What to do?}{3}{What to do?}{0}}}
\@writefile{nav}{\headcommand {\beamer@sectionpages {1}{2}}}
\@writefile{nav}{\headcommand {\beamer@subsectionpages {1}{2}}}
\@writefile{nav}{\headcommand {\slideentry {1}{0}{3}{3/3}{}{0}}}
\@writefile{nav}{\headcommand {\beamer@framepages {3}{3}}}
\@writefile{nav}{\headcommand {\slideentry {1}{0}{3}{3/4}{}{0}}}
\@writefile{nav}{\headcommand {\beamer@framepages {3}{4}}}
\@writefile{toc}{\beamer@sectionintoc {2}{What not do?}{5}{0}{2}}
\@writefile{nav}{\headcommand {\sectionentry {2}{What not do?}{5}{What not do?}{0}}}
\@writefile{nav}{\headcommand {\beamer@sectionpages {3}{4}}}
\@writefile{nav}{\headcommand {\beamer@subsectionpages {3}{4}}}
\@writefile{nav}{\headcommand {\slideentry {2}{0}{4}{5/5}{}{0}}}
\@writefile{nav}{\headcommand {\beamer@framepages {5}{5}}}
\@writefile{nav}{\headcommand {\slideentry {2}{0}{4}{5/6}{}{0}}}
\@writefile{nav}{\headcommand {\beamer@framepages {5}{6}}}
\@writefile{toc}{\beamer@sectionintoc {3}{The exam structure}{7}{0}{3}}
\@writefile{nav}{\headcommand {\sectionentry {3}{The exam structure}{7}{The exam structure}{0}}}
\@writefile{nav}{\headcommand {\beamer@sectionpages {5}{6}}}
\@writefile{nav}{\headcommand {\beamer@subsectionpages {5}{6}}}
\@writefile{nav}{\headcommand {\slideentry {3}{0}{5}{7/7}{}{0}}}
\@writefile{nav}{\headcommand {\beamer@framepages {7}{7}}}
\@writefile{nav}{\headcommand {\slideentry {3}{0}{5}{7/8}{}{0}}}
\@writefile{nav}{\headcommand {\beamer@framepages {7}{8}}}
\@writefile{toc}{\beamer@sectionintoc {4}{People to ask}{9}{0}{4}}
\@writefile{nav}{\headcommand {\sectionentry {4}{People to ask}{9}{People to ask}{0}}}
\@writefile{nav}{\headcommand {\beamer@sectionpages {7}{8}}}
\@writefile{nav}{\headcommand {\beamer@subsectionpages {7}{8}}}
\@writefile{nav}{\headcommand {\slideentry {4}{0}{6}{9/9}{}{0}}}
\@writefile{nav}{\headcommand {\beamer@framepages {9}{9}}}
\@writefile{nav}{\headcommand {\slideentry {4}{0}{6}{9/10}{}{0}}}
\@writefile{nav}{\headcommand {\beamer@framepages {9}{10}}}
\@writefile{nav}{\headcommand {\beamer@partpages {1}{10}}}
\@writefile{nav}{\headcommand {\beamer@subsectionpages {9}{10}}}
\@writefile{nav}{\headcommand {\beamer@sectionpages {9}{10}}}
\@writefile{nav}{\headcommand {\beamer@documentpages {10}}}
\@writefile{nav}{\headcommand {\def \inserttotalframenumber {10}}}
