\relax 
\providecommand\hyper@newdestlabel[2]{}
\providecommand\HyperFirstAtBeginDocument{\AtBeginDocument}
\HyperFirstAtBeginDocument{\ifx\hyper@anchor\@undefined
\global\let\oldcontentsline\contentsline
\gdef\contentsline#1#2#3#4{\oldcontentsline{#1}{#2}{#3}}
\global\let\oldnewlabel\newlabel
\gdef\newlabel#1#2{\newlabelxx{#1}#2}
\gdef\newlabelxx#1#2#3#4#5#6{\oldnewlabel{#1}{{#2}{#3}}}
\AtEndDocument{\ifx\hyper@anchor\@undefined
\let\contentsline\oldcontentsline
\let\newlabel\oldnewlabel
\fi}
\fi}
\global\let\hyper@last\relax 
\gdef\HyperFirstAtBeginDocument#1{#1}
\providecommand\HyField@AuxAddToFields[1]{}
\providecommand\HyField@AuxAddToCoFields[2]{}
\@writefile{toc}{\beamer@endinputifotherversion {3.33pt}}
\@writefile{nav}{\beamer@endinputifotherversion {3.33pt}}
\@writefile{nav}{\headcommand {\slideentry {0}{0}{1}{1/1}{}{0}}}
\@writefile{nav}{\headcommand {\beamer@framepages {1}{1}}}
\@writefile{nav}{\headcommand {\slideentry {0}{0}{2}{2/2}{}{0}}}
\@writefile{nav}{\headcommand {\beamer@framepages {2}{2}}}
\@writefile{toc}{\beamer@sectionintoc {1}{FSM -- A quick recap}{3}{0}{1}}
\@writefile{nav}{\headcommand {\sectionentry {1}{FSM -- A quick recap}{3}{FSM -- A quick recap}{0}}}
\@writefile{nav}{\headcommand {\beamer@sectionpages {1}{2}}}
\@writefile{nav}{\headcommand {\beamer@subsectionpages {1}{2}}}
\@writefile{nav}{\headcommand {\slideentry {1}{0}{3}{3/3}{}{0}}}
\@writefile{nav}{\headcommand {\beamer@framepages {3}{3}}}
\@writefile{nav}{\headcommand {\slideentry {1}{0}{3}{3/4}{}{0}}}
\@writefile{nav}{\headcommand {\beamer@framepages {3}{4}}}
\@writefile{nav}{\headcommand {\slideentry {1}{0}{3}{3/5}{}{0}}}
\@writefile{nav}{\headcommand {\beamer@framepages {3}{5}}}
\@writefile{nav}{\headcommand {\slideentry {1}{0}{3}{3/6}{}{0}}}
\@writefile{nav}{\headcommand {\beamer@framepages {3}{6}}}
\@writefile{nav}{\headcommand {\slideentry {1}{0}{3}{3/7}{}{0}}}
\@writefile{nav}{\headcommand {\beamer@framepages {3}{7}}}
\@writefile{nav}{\headcommand {\slideentry {1}{0}{3}{3/8}{}{0}}}
\@writefile{nav}{\headcommand {\beamer@framepages {3}{8}}}
\@writefile{nav}{\headcommand {\slideentry {1}{0}{3}{3/9}{}{0}}}
\@writefile{nav}{\headcommand {\beamer@framepages {3}{9}}}
\@writefile{nav}{\headcommand {\slideentry {1}{0}{3}{3/10}{}{0}}}
\@writefile{nav}{\headcommand {\beamer@framepages {3}{10}}}
\@writefile{nav}{\headcommand {\slideentry {1}{0}{3}{3/11}{}{0}}}
\@writefile{nav}{\headcommand {\beamer@framepages {3}{11}}}
\citation{nelson1995digital}
\@writefile{toc}{\beamer@sectionintoc {2}{Example 1}{12}{0}{2}}
\@writefile{nav}{\headcommand {\sectionentry {2}{Example 1}{12}{Example 1}{0}}}
\@writefile{nav}{\headcommand {\beamer@sectionpages {3}{11}}}
\@writefile{nav}{\headcommand {\beamer@subsectionpages {3}{11}}}
\@writefile{nav}{\headcommand {\slideentry {2}{0}{4}{12/12}{}{0}}}
\@writefile{nav}{\headcommand {\beamer@framepages {12}{12}}}
\citation{nelson1995digital}
\@writefile{nav}{\headcommand {\slideentry {2}{0}{4}{12/13}{}{0}}}
\@writefile{nav}{\headcommand {\beamer@framepages {12}{13}}}
\citation{nelson1995digital}
\@writefile{nav}{\headcommand {\slideentry {2}{0}{4}{12/14}{}{0}}}
\@writefile{nav}{\headcommand {\beamer@framepages {12}{14}}}
\citation{nelson1995digital}
\@writefile{nav}{\headcommand {\slideentry {2}{0}{4}{12/15}{}{0}}}
\@writefile{nav}{\headcommand {\beamer@framepages {12}{15}}}
\citation{nelson1995digital}
\@writefile{nav}{\headcommand {\slideentry {2}{0}{4}{12/16}{}{0}}}
\@writefile{nav}{\headcommand {\beamer@framepages {12}{16}}}
\citation{nelson1995digital}
\@writefile{nav}{\headcommand {\slideentry {2}{0}{4}{12/17}{}{0}}}
\@writefile{nav}{\headcommand {\beamer@framepages {12}{17}}}
\citation{nelson1995digital}
\@writefile{nav}{\headcommand {\slideentry {2}{0}{4}{12/18}{}{0}}}
\@writefile{nav}{\headcommand {\beamer@framepages {12}{18}}}
\citation{nelson1995digital}
\@writefile{nav}{\headcommand {\slideentry {2}{0}{4}{12/19}{}{0}}}
\@writefile{nav}{\headcommand {\beamer@framepages {12}{19}}}
\citation{nelson1995digital}
\@writefile{nav}{\headcommand {\slideentry {2}{0}{4}{12/20}{}{0}}}
\@writefile{nav}{\headcommand {\beamer@framepages {12}{20}}}
\citation{nelson1995digital}
\@writefile{nav}{\headcommand {\slideentry {2}{0}{4}{12/21}{}{0}}}
\@writefile{nav}{\headcommand {\beamer@framepages {12}{21}}}
\citation{nelson1995digital}
\@writefile{nav}{\headcommand {\slideentry {2}{0}{4}{12/22}{}{0}}}
\@writefile{nav}{\headcommand {\beamer@framepages {12}{22}}}
\@writefile{toc}{\beamer@sectionintoc {3}{Optional Homework.. :-O}{23}{0}{3}}
\@writefile{nav}{\headcommand {\sectionentry {3}{Optional Homework.. :-O}{23}{Optional Homework.. :-O}{0}}}
\@writefile{nav}{\headcommand {\beamer@sectionpages {12}{22}}}
\@writefile{nav}{\headcommand {\beamer@subsectionpages {12}{22}}}
\@writefile{nav}{\headcommand {\slideentry {3}{0}{5}{23/23}{}{0}}}
\@writefile{nav}{\headcommand {\beamer@framepages {23}{23}}}
\bibstyle{apalike}
\bibdata{ref}
\bibcite{nelson1995digital}{\hyperlink {beamerbibnelson1995digital}{Nelson et\nobreakspace  {}al., 1995}}
\@writefile{nav}{\headcommand {\slideentry {3}{0}{6}{24/24}{}{0}}}
\@writefile{nav}{\headcommand {\beamer@framepages {24}{24}}}
\@writefile{nav}{\headcommand {\beamer@partpages {1}{24}}}
\@writefile{nav}{\headcommand {\beamer@subsectionpages {23}{24}}}
\@writefile{nav}{\headcommand {\beamer@sectionpages {23}{24}}}
\@writefile{nav}{\headcommand {\beamer@documentpages {24}}}
\@writefile{nav}{\headcommand {\def \inserttotalframenumber {24}}}
