\beamer@endinputifotherversion {3.33pt}
\beamer@sectionintoc {1}{FSM -- A quick recap}{3}{0}{1}
\beamer@sectionintoc {2}{Example 1}{12}{0}{2}
\beamer@sectionintoc {3}{Optional Homework.. :-O}{23}{0}{3}
