\beamer@endinputifotherversion {3.33pt}
\beamer@sectionintoc {1}{Classical Design}{3}{0}{1}
\beamer@sectionintoc {2}{Example 1}{11}{0}{2}
\beamer@sectionintoc {3}{Example 2}{19}{0}{3}
\beamer@sectionintoc {4}{Q\&A}{25}{0}{4}
