\relax 
\providecommand\hyper@newdestlabel[2]{}
\providecommand\HyperFirstAtBeginDocument{\AtBeginDocument}
\HyperFirstAtBeginDocument{\ifx\hyper@anchor\@undefined
\global\let\oldcontentsline\contentsline
\gdef\contentsline#1#2#3#4{\oldcontentsline{#1}{#2}{#3}}
\global\let\oldnewlabel\newlabel
\gdef\newlabel#1#2{\newlabelxx{#1}#2}
\gdef\newlabelxx#1#2#3#4#5#6{\oldnewlabel{#1}{{#2}{#3}}}
\AtEndDocument{\ifx\hyper@anchor\@undefined
\let\contentsline\oldcontentsline
\let\newlabel\oldnewlabel
\fi}
\fi}
\global\let\hyper@last\relax 
\gdef\HyperFirstAtBeginDocument#1{#1}
\providecommand\HyField@AuxAddToFields[1]{}
\providecommand\HyField@AuxAddToCoFields[2]{}
\@writefile{toc}{\beamer@endinputifotherversion {3.33pt}}
\@writefile{nav}{\beamer@endinputifotherversion {3.33pt}}
\@writefile{nav}{\headcommand {\slideentry {0}{0}{1}{1/1}{}{0}}}
\@writefile{nav}{\headcommand {\beamer@framepages {1}{1}}}
\@writefile{nav}{\headcommand {\slideentry {0}{0}{2}{2/2}{}{0}}}
\@writefile{nav}{\headcommand {\beamer@framepages {2}{2}}}
\citation{majumder2015investigation}
\@writefile{toc}{\beamer@sectionintoc {1}{Introduction}{3}{0}{1}}
\@writefile{nav}{\headcommand {\sectionentry {1}{Introduction}{3}{Introduction}{0}}}
\@writefile{nav}{\headcommand {\beamer@sectionpages {1}{2}}}
\@writefile{nav}{\headcommand {\beamer@subsectionpages {1}{2}}}
\@writefile{nav}{\headcommand {\slideentry {1}{0}{3}{3/3}{}{0}}}
\@writefile{nav}{\headcommand {\beamer@framepages {3}{3}}}
\@writefile{nav}{\headcommand {\slideentry {1}{0}{3}{3/4}{}{0}}}
\@writefile{nav}{\headcommand {\beamer@framepages {3}{4}}}
\@writefile{toc}{\beamer@sectionintoc {2}{4 Variables}{5}{0}{2}}
\@writefile{nav}{\headcommand {\sectionentry {2}{4 Variables}{5}{4 Variables}{0}}}
\@writefile{nav}{\headcommand {\beamer@sectionpages {3}{4}}}
\@writefile{nav}{\headcommand {\beamer@subsectionpages {3}{4}}}
\@writefile{nav}{\headcommand {\slideentry {2}{0}{4}{5/5}{}{0}}}
\@writefile{nav}{\headcommand {\beamer@framepages {5}{5}}}
\@writefile{nav}{\headcommand {\slideentry {2}{0}{4}{5/6}{}{0}}}
\@writefile{nav}{\headcommand {\beamer@framepages {5}{6}}}
\@writefile{nav}{\headcommand {\slideentry {2}{0}{4}{5/7}{}{0}}}
\@writefile{nav}{\headcommand {\beamer@framepages {5}{7}}}
\@writefile{nav}{\headcommand {\slideentry {2}{0}{4}{5/8}{}{0}}}
\@writefile{nav}{\headcommand {\beamer@framepages {5}{8}}}
\@writefile{nav}{\headcommand {\slideentry {2}{0}{4}{5/9}{}{0}}}
\@writefile{nav}{\headcommand {\beamer@framepages {5}{9}}}
\@writefile{nav}{\headcommand {\slideentry {2}{0}{4}{5/10}{}{0}}}
\@writefile{nav}{\headcommand {\beamer@framepages {5}{10}}}
\@writefile{toc}{\beamer@sectionintoc {3}{Don't cares}{11}{0}{3}}
\@writefile{nav}{\headcommand {\sectionentry {3}{Don't cares}{11}{Don't cares}{0}}}
\@writefile{nav}{\headcommand {\beamer@sectionpages {5}{10}}}
\@writefile{nav}{\headcommand {\beamer@subsectionpages {5}{10}}}
\@writefile{nav}{\headcommand {\slideentry {3}{0}{5}{11/11}{}{0}}}
\@writefile{nav}{\headcommand {\beamer@framepages {11}{11}}}
\@writefile{nav}{\headcommand {\slideentry {3}{0}{5}{11/12}{}{0}}}
\@writefile{nav}{\headcommand {\beamer@framepages {11}{12}}}
\@writefile{toc}{\beamer@sectionintoc {4}{Petrick's method}{13}{0}{4}}
\@writefile{nav}{\headcommand {\sectionentry {4}{Petrick's method}{13}{Petrick's method}{0}}}
\@writefile{nav}{\headcommand {\beamer@sectionpages {11}{12}}}
\@writefile{nav}{\headcommand {\beamer@subsectionpages {11}{12}}}
\@writefile{nav}{\headcommand {\slideentry {4}{0}{6}{13/13}{}{0}}}
\@writefile{nav}{\headcommand {\beamer@framepages {13}{13}}}
\@writefile{nav}{\headcommand {\slideentry {4}{0}{6}{13/14}{}{0}}}
\@writefile{nav}{\headcommand {\beamer@framepages {13}{14}}}
\@writefile{nav}{\headcommand {\slideentry {4}{0}{6}{13/15}{}{0}}}
\@writefile{nav}{\headcommand {\beamer@framepages {13}{15}}}
\@writefile{nav}{\headcommand {\slideentry {4}{0}{6}{13/16}{}{0}}}
\@writefile{nav}{\headcommand {\beamer@framepages {13}{16}}}
\@writefile{nav}{\headcommand {\slideentry {4}{0}{6}{13/17}{}{0}}}
\@writefile{nav}{\headcommand {\beamer@framepages {13}{17}}}
\@writefile{nav}{\headcommand {\slideentry {4}{0}{6}{13/18}{}{0}}}
\@writefile{nav}{\headcommand {\beamer@framepages {13}{18}}}
\@writefile{nav}{\headcommand {\slideentry {4}{0}{6}{13/19}{}{0}}}
\@writefile{nav}{\headcommand {\beamer@framepages {13}{19}}}
\@writefile{toc}{\beamer@sectionintoc {5}{Problems?}{20}{0}{5}}
\@writefile{nav}{\headcommand {\sectionentry {5}{Problems?}{20}{Problems?}{0}}}
\@writefile{nav}{\headcommand {\beamer@sectionpages {13}{19}}}
\@writefile{nav}{\headcommand {\beamer@subsectionpages {13}{19}}}
\@writefile{nav}{\headcommand {\slideentry {5}{0}{7}{20/20}{}{0}}}
\@writefile{nav}{\headcommand {\beamer@framepages {20}{20}}}
\bibstyle{apalike}
\bibdata{ref}
\bibcite{majumder2015investigation}{\hyperlink {beamerbibmajumder2015investigation}{Majumder et\nobreakspace  {}al., 2015}}
\@writefile{nav}{\headcommand {\slideentry {5}{0}{8}{21/21}{}{0}}}
\@writefile{nav}{\headcommand {\beamer@framepages {21}{21}}}
\@writefile{nav}{\headcommand {\beamer@partpages {1}{21}}}
\@writefile{nav}{\headcommand {\beamer@subsectionpages {20}{21}}}
\@writefile{nav}{\headcommand {\beamer@sectionpages {20}{21}}}
\@writefile{nav}{\headcommand {\beamer@documentpages {21}}}
\@writefile{nav}{\headcommand {\def \inserttotalframenumber {21}}}
