\beamer@endinputifotherversion {3.33pt}
\beamer@sectionintoc {1}{Introduction}{3}{0}{1}
\beamer@sectionintoc {2}{4 Variables}{5}{0}{2}
\beamer@sectionintoc {3}{Don't cares}{11}{0}{3}
\beamer@sectionintoc {4}{Petrick's method}{13}{0}{4}
\beamer@sectionintoc {5}{Problems?}{20}{0}{5}
