\beamer@endinputifotherversion {3.33pt}
\headcommand {\slideentry {0}{0}{1}{1/1}{}{0}}
\headcommand {\beamer@framepages {1}{1}}
\headcommand {\slideentry {0}{0}{2}{2/2}{}{0}}
\headcommand {\beamer@framepages {2}{2}}
\headcommand {\sectionentry {1}{One more example}{3}{One more example}{0}}
\headcommand {\beamer@sectionpages {1}{2}}
\headcommand {\beamer@subsectionpages {1}{2}}
\headcommand {\slideentry {1}{0}{3}{3/3}{}{0}}
\headcommand {\beamer@framepages {3}{3}}
\headcommand {\slideentry {1}{0}{3}{3/4}{}{0}}
\headcommand {\beamer@framepages {3}{4}}
\headcommand {\slideentry {1}{0}{3}{3/5}{}{0}}
\headcommand {\beamer@framepages {3}{5}}
\headcommand {\slideentry {1}{0}{3}{3/6}{}{0}}
\headcommand {\beamer@framepages {3}{6}}
\headcommand {\slideentry {1}{0}{3}{3/7}{}{0}}
\headcommand {\beamer@framepages {3}{7}}
\headcommand {\slideentry {1}{0}{3}{3/8}{}{0}}
\headcommand {\beamer@framepages {3}{8}}
\headcommand {\slideentry {1}{0}{3}{3/9}{}{0}}
\headcommand {\beamer@framepages {3}{9}}
\headcommand {\slideentry {1}{0}{3}{3/10}{}{0}}
\headcommand {\beamer@framepages {3}{10}}
\headcommand {\sectionentry {2}{How fast can we go}{11}{How fast can we go}{0}}
\headcommand {\beamer@sectionpages {3}{10}}
\headcommand {\beamer@subsectionpages {3}{10}}
\headcommand {\slideentry {2}{0}{4}{11/11}{}{0}}
\headcommand {\beamer@framepages {11}{11}}
\headcommand {\slideentry {2}{0}{4}{11/12}{}{0}}
\headcommand {\beamer@framepages {11}{12}}
\headcommand {\slideentry {2}{0}{4}{11/13}{}{0}}
\headcommand {\beamer@framepages {11}{13}}
\headcommand {\slideentry {2}{0}{4}{11/14}{}{0}}
\headcommand {\beamer@framepages {11}{14}}
\headcommand {\slideentry {2}{0}{4}{11/15}{}{0}}
\headcommand {\beamer@framepages {11}{15}}
\headcommand {\slideentry {2}{0}{4}{11/16}{}{0}}
\headcommand {\beamer@framepages {11}{16}}
\headcommand {\slideentry {2}{0}{4}{11/17}{}{0}}
\headcommand {\beamer@framepages {11}{17}}
\headcommand {\sectionentry {3}{Adding an Enable}{18}{Adding an Enable}{0}}
\headcommand {\beamer@sectionpages {11}{17}}
\headcommand {\beamer@subsectionpages {11}{17}}
\headcommand {\slideentry {3}{0}{5}{18/18}{}{0}}
\headcommand {\beamer@framepages {18}{18}}
\headcommand {\slideentry {3}{0}{5}{18/19}{}{0}}
\headcommand {\beamer@framepages {18}{19}}
\headcommand {\slideentry {3}{0}{5}{18/20}{}{0}}
\headcommand {\beamer@framepages {18}{20}}
\headcommand {\slideentry {3}{0}{5}{18/21}{}{0}}
\headcommand {\beamer@framepages {18}{21}}
\headcommand {\slideentry {3}{0}{5}{18/22}{}{0}}
\headcommand {\beamer@framepages {18}{22}}
\headcommand {\slideentry {3}{0}{5}{18/23}{}{0}}
\headcommand {\beamer@framepages {18}{23}}
\headcommand {\slideentry {3}{0}{5}{18/24}{}{0}}
\headcommand {\beamer@framepages {18}{24}}
\headcommand {\slideentry {3}{0}{6}{25/25}{}{0}}
\headcommand {\beamer@framepages {25}{25}}
\headcommand {\beamer@partpages {1}{25}}
\headcommand {\beamer@subsectionpages {18}{25}}
\headcommand {\beamer@sectionpages {18}{25}}
\headcommand {\beamer@documentpages {25}}
\headcommand {\def \inserttotalframenumber {25}}
