\beamer@endinputifotherversion {3.33pt}
\beamer@sectionintoc {1}{One more example}{3}{0}{1}
\beamer@sectionintoc {2}{How fast can we go}{11}{0}{2}
\beamer@sectionintoc {3}{Adding an Enable}{18}{0}{3}
