\relax 
\providecommand\hyper@newdestlabel[2]{}
\providecommand\HyperFirstAtBeginDocument{\AtBeginDocument}
\HyperFirstAtBeginDocument{\ifx\hyper@anchor\@undefined
\global\let\oldcontentsline\contentsline
\gdef\contentsline#1#2#3#4{\oldcontentsline{#1}{#2}{#3}}
\global\let\oldnewlabel\newlabel
\gdef\newlabel#1#2{\newlabelxx{#1}#2}
\gdef\newlabelxx#1#2#3#4#5#6{\oldnewlabel{#1}{{#2}{#3}}}
\AtEndDocument{\ifx\hyper@anchor\@undefined
\let\contentsline\oldcontentsline
\let\newlabel\oldnewlabel
\fi}
\fi}
\global\let\hyper@last\relax 
\gdef\HyperFirstAtBeginDocument#1{#1}
\providecommand\HyField@AuxAddToFields[1]{}
\providecommand\HyField@AuxAddToCoFields[2]{}
\@writefile{toc}{\beamer@endinputifotherversion {3.33pt}}
\@writefile{nav}{\beamer@endinputifotherversion {3.33pt}}
\@writefile{nav}{\headcommand {\slideentry {0}{0}{1}{1/1}{}{0}}}
\@writefile{nav}{\headcommand {\beamer@framepages {1}{1}}}
\@writefile{nav}{\headcommand {\slideentry {0}{0}{2}{2/2}{}{0}}}
\@writefile{nav}{\headcommand {\beamer@framepages {2}{2}}}
\citation{nelson1995digital}
\@writefile{toc}{\beamer@sectionintoc {1}{One more example}{3}{0}{1}}
\@writefile{nav}{\headcommand {\sectionentry {1}{One more example}{3}{One more example}{0}}}
\@writefile{nav}{\headcommand {\beamer@sectionpages {1}{2}}}
\@writefile{nav}{\headcommand {\beamer@subsectionpages {1}{2}}}
\@writefile{nav}{\headcommand {\slideentry {1}{0}{3}{3/3}{}{0}}}
\@writefile{nav}{\headcommand {\beamer@framepages {3}{3}}}
\citation{nelson1995digital}
\@writefile{nav}{\headcommand {\slideentry {1}{0}{3}{3/4}{}{0}}}
\@writefile{nav}{\headcommand {\beamer@framepages {3}{4}}}
\citation{nelson1995digital}
\@writefile{nav}{\headcommand {\slideentry {1}{0}{3}{3/5}{}{0}}}
\@writefile{nav}{\headcommand {\beamer@framepages {3}{5}}}
\citation{nelson1995digital}
\@writefile{nav}{\headcommand {\slideentry {1}{0}{3}{3/6}{}{0}}}
\@writefile{nav}{\headcommand {\beamer@framepages {3}{6}}}
\citation{nelson1995digital}
\@writefile{nav}{\headcommand {\slideentry {1}{0}{3}{3/7}{}{0}}}
\@writefile{nav}{\headcommand {\beamer@framepages {3}{7}}}
\citation{nelson1995digital}
\@writefile{nav}{\headcommand {\slideentry {1}{0}{3}{3/8}{}{0}}}
\@writefile{nav}{\headcommand {\beamer@framepages {3}{8}}}
\citation{nelson1995digital}
\@writefile{nav}{\headcommand {\slideentry {1}{0}{3}{3/9}{}{0}}}
\@writefile{nav}{\headcommand {\beamer@framepages {3}{9}}}
\citation{nelson1995digital}
\@writefile{nav}{\headcommand {\slideentry {1}{0}{3}{3/10}{}{0}}}
\@writefile{nav}{\headcommand {\beamer@framepages {3}{10}}}
\@writefile{toc}{\beamer@sectionintoc {2}{How fast can we go}{11}{0}{2}}
\@writefile{nav}{\headcommand {\sectionentry {2}{How fast can we go}{11}{How fast can we go}{0}}}
\@writefile{nav}{\headcommand {\beamer@sectionpages {3}{10}}}
\@writefile{nav}{\headcommand {\beamer@subsectionpages {3}{10}}}
\@writefile{nav}{\headcommand {\slideentry {2}{0}{4}{11/11}{}{0}}}
\@writefile{nav}{\headcommand {\beamer@framepages {11}{11}}}
\@writefile{nav}{\headcommand {\slideentry {2}{0}{4}{11/12}{}{0}}}
\@writefile{nav}{\headcommand {\beamer@framepages {11}{12}}}
\@writefile{nav}{\headcommand {\slideentry {2}{0}{4}{11/13}{}{0}}}
\@writefile{nav}{\headcommand {\beamer@framepages {11}{13}}}
\@writefile{nav}{\headcommand {\slideentry {2}{0}{4}{11/14}{}{0}}}
\@writefile{nav}{\headcommand {\beamer@framepages {11}{14}}}
\@writefile{nav}{\headcommand {\slideentry {2}{0}{4}{11/15}{}{0}}}
\@writefile{nav}{\headcommand {\beamer@framepages {11}{15}}}
\@writefile{nav}{\headcommand {\slideentry {2}{0}{4}{11/16}{}{0}}}
\@writefile{nav}{\headcommand {\beamer@framepages {11}{16}}}
\@writefile{nav}{\headcommand {\slideentry {2}{0}{4}{11/17}{}{0}}}
\@writefile{nav}{\headcommand {\beamer@framepages {11}{17}}}
\@writefile{toc}{\beamer@sectionintoc {3}{Adding an Enable}{18}{0}{3}}
\@writefile{nav}{\headcommand {\sectionentry {3}{Adding an Enable}{18}{Adding an Enable}{0}}}
\@writefile{nav}{\headcommand {\beamer@sectionpages {11}{17}}}
\@writefile{nav}{\headcommand {\beamer@subsectionpages {11}{17}}}
\@writefile{nav}{\headcommand {\slideentry {3}{0}{5}{18/18}{}{0}}}
\@writefile{nav}{\headcommand {\beamer@framepages {18}{18}}}
\@writefile{nav}{\headcommand {\slideentry {3}{0}{5}{18/19}{}{0}}}
\@writefile{nav}{\headcommand {\beamer@framepages {18}{19}}}
\@writefile{nav}{\headcommand {\slideentry {3}{0}{5}{18/20}{}{0}}}
\@writefile{nav}{\headcommand {\beamer@framepages {18}{20}}}
\@writefile{nav}{\headcommand {\slideentry {3}{0}{5}{18/21}{}{0}}}
\@writefile{nav}{\headcommand {\beamer@framepages {18}{21}}}
\@writefile{nav}{\headcommand {\slideentry {3}{0}{5}{18/22}{}{0}}}
\@writefile{nav}{\headcommand {\beamer@framepages {18}{22}}}
\@writefile{nav}{\headcommand {\slideentry {3}{0}{5}{18/23}{}{0}}}
\@writefile{nav}{\headcommand {\beamer@framepages {18}{23}}}
\@writefile{nav}{\headcommand {\slideentry {3}{0}{5}{18/24}{}{0}}}
\@writefile{nav}{\headcommand {\beamer@framepages {18}{24}}}
\bibstyle{apalike}
\bibdata{ref}
\bibcite{nelson1995digital}{\hyperlink {beamerbibnelson1995digital}{Nelson et\nobreakspace  {}al., 1995}}
\@writefile{nav}{\headcommand {\slideentry {3}{0}{6}{25/25}{}{0}}}
\@writefile{nav}{\headcommand {\beamer@framepages {25}{25}}}
\@writefile{nav}{\headcommand {\beamer@partpages {1}{25}}}
\@writefile{nav}{\headcommand {\beamer@subsectionpages {18}{25}}}
\@writefile{nav}{\headcommand {\beamer@sectionpages {18}{25}}}
\@writefile{nav}{\headcommand {\beamer@documentpages {25}}}
\@writefile{nav}{\headcommand {\def \inserttotalframenumber {25}}}
