This is BibTeX, Version 0.99d (TeX Live 2015/Debian)
Capacity: max_strings=35307, hash_size=35307, hash_prime=30011
The top-level auxiliary file: quine-mccluskey.aux
The style file: apalike.bst
Database file #1: ref.bib
You've used 1 entry,
            1935 wiz_defined-function locations,
            478 strings with 4024 characters,
and the built_in function-call counts, 567 in all, are:
= -- 57
> -- 23
< -- 1
+ -- 8
- -- 8
* -- 42
:= -- 93
add.period$ -- 4
call.type$ -- 1
change.case$ -- 9
chr.to.int$ -- 1
cite$ -- 1
duplicate$ -- 25
empty$ -- 40
format.name$ -- 9
if$ -- 119
int.to.chr$ -- 1
int.to.str$ -- 0
missing$ -- 1
newline$ -- 8
num.names$ -- 3
pop$ -- 12
preamble$ -- 1
purify$ -- 9
quote$ -- 0
skip$ -- 19
stack$ -- 0
substring$ -- 36
swap$ -- 8
text.length$ -- 1
text.prefix$ -- 0
top$ -- 0
type$ -- 6
warning$ -- 0
while$ -- 5
width$ -- 0
write$ -- 16
