\relax 
\providecommand\hyper@newdestlabel[2]{}
\providecommand\HyperFirstAtBeginDocument{\AtBeginDocument}
\HyperFirstAtBeginDocument{\ifx\hyper@anchor\@undefined
\global\let\oldcontentsline\contentsline
\gdef\contentsline#1#2#3#4{\oldcontentsline{#1}{#2}{#3}}
\global\let\oldnewlabel\newlabel
\gdef\newlabel#1#2{\newlabelxx{#1}#2}
\gdef\newlabelxx#1#2#3#4#5#6{\oldnewlabel{#1}{{#2}{#3}}}
\AtEndDocument{\ifx\hyper@anchor\@undefined
\let\contentsline\oldcontentsline
\let\newlabel\oldnewlabel
\fi}
\fi}
\global\let\hyper@last\relax 
\gdef\HyperFirstAtBeginDocument#1{#1}
\providecommand\HyField@AuxAddToFields[1]{}
\providecommand\HyField@AuxAddToCoFields[2]{}
\@writefile{toc}{\beamer@endinputifotherversion {3.33pt}}
\@writefile{nav}{\beamer@endinputifotherversion {3.33pt}}
\@writefile{nav}{\headcommand {\slideentry {0}{0}{1}{1/1}{}{0}}}
\@writefile{nav}{\headcommand {\beamer@framepages {1}{1}}}
\@writefile{nav}{\headcommand {\slideentry {0}{0}{2}{2/2}{}{0}}}
\@writefile{nav}{\headcommand {\beamer@framepages {2}{2}}}
\citation{majumder2015investigation}
\@writefile{toc}{\beamer@sectionintoc {1}{Introduction}{3}{0}{1}}
\@writefile{nav}{\headcommand {\sectionentry {1}{Introduction}{3}{Introduction}{0}}}
\@writefile{nav}{\headcommand {\beamer@sectionpages {1}{2}}}
\@writefile{nav}{\headcommand {\beamer@subsectionpages {1}{2}}}
\@writefile{nav}{\headcommand {\slideentry {1}{0}{3}{3/3}{}{0}}}
\@writefile{nav}{\headcommand {\beamer@framepages {3}{3}}}
\citation{majumder2015investigation}
\@writefile{nav}{\headcommand {\slideentry {1}{0}{3}{3/4}{}{0}}}
\@writefile{nav}{\headcommand {\beamer@framepages {3}{4}}}
\citation{majumder2015investigation}
\@writefile{nav}{\headcommand {\slideentry {1}{0}{3}{3/5}{}{0}}}
\@writefile{nav}{\headcommand {\beamer@framepages {3}{5}}}
\citation{majumder2015investigation}
\@writefile{nav}{\headcommand {\slideentry {1}{0}{3}{3/6}{}{0}}}
\@writefile{nav}{\headcommand {\beamer@framepages {3}{6}}}
\citation{majumder2015investigation}
\@writefile{nav}{\headcommand {\slideentry {1}{0}{3}{3/7}{}{0}}}
\@writefile{nav}{\headcommand {\beamer@framepages {3}{7}}}
\citation{majumder2015investigation}
\@writefile{nav}{\headcommand {\slideentry {1}{0}{3}{3/8}{}{0}}}
\@writefile{nav}{\headcommand {\beamer@framepages {3}{8}}}
\citation{majumder2015investigation}
\@writefile{nav}{\headcommand {\slideentry {1}{0}{3}{3/9}{}{0}}}
\@writefile{nav}{\headcommand {\beamer@framepages {3}{9}}}
\citation{majumder2015investigation}
\@writefile{nav}{\headcommand {\slideentry {1}{0}{3}{3/10}{}{0}}}
\@writefile{nav}{\headcommand {\beamer@framepages {3}{10}}}
\citation{majumder2015investigation}
\@writefile{nav}{\headcommand {\slideentry {1}{0}{3}{3/11}{}{0}}}
\@writefile{nav}{\headcommand {\beamer@framepages {3}{11}}}
\@writefile{toc}{\beamer@sectionintoc {2}{Column Dominance}{12}{0}{2}}
\@writefile{nav}{\headcommand {\sectionentry {2}{Column Dominance}{12}{Column Dominance}{0}}}
\@writefile{nav}{\headcommand {\beamer@sectionpages {3}{11}}}
\@writefile{nav}{\headcommand {\beamer@subsectionpages {3}{11}}}
\@writefile{nav}{\headcommand {\slideentry {2}{0}{4}{12/12}{}{0}}}
\@writefile{nav}{\headcommand {\beamer@framepages {12}{12}}}
\@writefile{nav}{\headcommand {\slideentry {2}{0}{4}{12/13}{}{0}}}
\@writefile{nav}{\headcommand {\beamer@framepages {12}{13}}}
\@writefile{nav}{\headcommand {\slideentry {2}{0}{4}{12/14}{}{0}}}
\@writefile{nav}{\headcommand {\beamer@framepages {12}{14}}}
\@writefile{nav}{\headcommand {\slideentry {2}{0}{4}{12/15}{}{0}}}
\@writefile{nav}{\headcommand {\beamer@framepages {12}{15}}}
\@writefile{nav}{\headcommand {\slideentry {2}{0}{4}{12/16}{}{0}}}
\@writefile{nav}{\headcommand {\beamer@framepages {12}{16}}}
\@writefile{nav}{\headcommand {\slideentry {2}{0}{4}{12/17}{}{0}}}
\@writefile{nav}{\headcommand {\beamer@framepages {12}{17}}}
\@writefile{nav}{\headcommand {\slideentry {2}{0}{4}{12/18}{}{0}}}
\@writefile{nav}{\headcommand {\beamer@framepages {12}{18}}}
\@writefile{nav}{\headcommand {\slideentry {2}{0}{4}{12/19}{}{0}}}
\@writefile{nav}{\headcommand {\beamer@framepages {12}{19}}}
\@writefile{nav}{\headcommand {\slideentry {2}{0}{4}{12/20}{}{0}}}
\@writefile{nav}{\headcommand {\beamer@framepages {12}{20}}}
\@writefile{nav}{\headcommand {\slideentry {2}{0}{4}{12/21}{}{0}}}
\@writefile{nav}{\headcommand {\beamer@framepages {12}{21}}}
\@writefile{toc}{\beamer@sectionintoc {3}{An example}{22}{0}{3}}
\@writefile{nav}{\headcommand {\sectionentry {3}{An example}{22}{An example}{0}}}
\@writefile{nav}{\headcommand {\beamer@sectionpages {12}{21}}}
\@writefile{nav}{\headcommand {\beamer@subsectionpages {12}{21}}}
\@writefile{nav}{\headcommand {\slideentry {3}{0}{5}{22/22}{}{0}}}
\@writefile{nav}{\headcommand {\beamer@framepages {22}{22}}}
\bibstyle{apalike}
\bibdata{ref}
\bibcite{majumder2015investigation}{\hyperlink {beamerbibmajumder2015investigation}{Majumder et\nobreakspace  {}al., 2015}}
\@writefile{nav}{\headcommand {\slideentry {3}{0}{6}{23/23}{}{0}}}
\@writefile{nav}{\headcommand {\beamer@framepages {23}{23}}}
\@writefile{nav}{\headcommand {\beamer@partpages {1}{23}}}
\@writefile{nav}{\headcommand {\beamer@subsectionpages {22}{23}}}
\@writefile{nav}{\headcommand {\beamer@sectionpages {22}{23}}}
\@writefile{nav}{\headcommand {\beamer@documentpages {23}}}
\@writefile{nav}{\headcommand {\def \inserttotalframenumber {23}}}
