\beamer@endinputifotherversion {3.33pt}
\headcommand {\slideentry {0}{0}{1}{1/1}{}{0}}
\headcommand {\beamer@framepages {1}{1}}
\headcommand {\slideentry {0}{0}{2}{2/2}{}{0}}
\headcommand {\beamer@framepages {2}{2}}
\headcommand {\sectionentry {1}{Introduction}{3}{Introduction}{0}}
\headcommand {\beamer@sectionpages {1}{2}}
\headcommand {\beamer@subsectionpages {1}{2}}
\headcommand {\slideentry {1}{0}{3}{3/3}{}{0}}
\headcommand {\beamer@framepages {3}{3}}
\headcommand {\slideentry {1}{0}{3}{3/4}{}{0}}
\headcommand {\beamer@framepages {3}{4}}
\headcommand {\slideentry {1}{0}{3}{3/5}{}{0}}
\headcommand {\beamer@framepages {3}{5}}
\headcommand {\slideentry {1}{0}{3}{3/6}{}{0}}
\headcommand {\beamer@framepages {3}{6}}
\headcommand {\slideentry {1}{0}{3}{3/7}{}{0}}
\headcommand {\beamer@framepages {3}{7}}
\headcommand {\slideentry {1}{0}{3}{3/8}{}{0}}
\headcommand {\beamer@framepages {3}{8}}
\headcommand {\slideentry {1}{0}{3}{3/9}{}{0}}
\headcommand {\beamer@framepages {3}{9}}
\headcommand {\slideentry {1}{0}{3}{3/10}{}{0}}
\headcommand {\beamer@framepages {3}{10}}
\headcommand {\slideentry {1}{0}{3}{3/11}{}{0}}
\headcommand {\beamer@framepages {3}{11}}
\headcommand {\sectionentry {2}{Column Dominance}{12}{Column Dominance}{0}}
\headcommand {\beamer@sectionpages {3}{11}}
\headcommand {\beamer@subsectionpages {3}{11}}
\headcommand {\slideentry {2}{0}{4}{12/12}{}{0}}
\headcommand {\beamer@framepages {12}{12}}
\headcommand {\slideentry {2}{0}{4}{12/13}{}{0}}
\headcommand {\beamer@framepages {12}{13}}
\headcommand {\slideentry {2}{0}{4}{12/14}{}{0}}
\headcommand {\beamer@framepages {12}{14}}
\headcommand {\slideentry {2}{0}{4}{12/15}{}{0}}
\headcommand {\beamer@framepages {12}{15}}
\headcommand {\slideentry {2}{0}{4}{12/16}{}{0}}
\headcommand {\beamer@framepages {12}{16}}
\headcommand {\slideentry {2}{0}{4}{12/17}{}{0}}
\headcommand {\beamer@framepages {12}{17}}
\headcommand {\slideentry {2}{0}{4}{12/18}{}{0}}
\headcommand {\beamer@framepages {12}{18}}
\headcommand {\slideentry {2}{0}{4}{12/19}{}{0}}
\headcommand {\beamer@framepages {12}{19}}
\headcommand {\slideentry {2}{0}{4}{12/20}{}{0}}
\headcommand {\beamer@framepages {12}{20}}
\headcommand {\slideentry {2}{0}{4}{12/21}{}{0}}
\headcommand {\beamer@framepages {12}{21}}
\headcommand {\sectionentry {3}{An example}{22}{An example}{0}}
\headcommand {\beamer@sectionpages {12}{21}}
\headcommand {\beamer@subsectionpages {12}{21}}
\headcommand {\slideentry {3}{0}{5}{22/22}{}{0}}
\headcommand {\beamer@framepages {22}{22}}
\headcommand {\slideentry {3}{0}{6}{23/23}{}{0}}
\headcommand {\beamer@framepages {23}{23}}
\headcommand {\beamer@partpages {1}{23}}
\headcommand {\beamer@subsectionpages {22}{23}}
\headcommand {\beamer@sectionpages {22}{23}}
\headcommand {\beamer@documentpages {23}}
\headcommand {\def \inserttotalframenumber {23}}
